Test solutions for R project : gravitas
…
week_month = function(t_index)
{
ceiling((lubridate::day(t_index) + first_day_of_month_wday(t_index) - 1) / 7)
}

aus_elec_rev <- aus_elec %>% mutate(h_w = hour_week(Time), w_m = week_month(Time))

aus_elec_rev

## # A tsibble: 263,040 x 7 [30m] <UTC>
## # Key:       State [5]
##    State         Time                Demand Temperature Holiday   h_w   w_m
##    <chr>         <dttm>               <dbl>       <dbl> <lgl>   <dbl> <dbl>
##  1 New South Wa 2012-01-01 00:00:00  5223.        18.2 FALSE       0     1
##  2 New South Wa 2012-01-01 00:30:00  5102.        17.7 FALSE       0     1
##  3 New South Wa 2012-01-01 01:00:00  4934.        17.6 FALSE       1     1
##  4 New South Wa 2012-01-01 01:30:00  4644.        17.4 FALSE       1     1
##  5 New South Wa 2012-01-01 02:00:00  4404.        17.0 FALSE       2     1
##  6 New South Wa 2012-01-01 02:30:00  4223.        16.7 FALSE       2     1
##  7 New South Wa 2012-01-01 03:00:00  4118.        16.8 FALSE       3     1
##  8 New South Wa 2012-01-01 03:30:00  4036.        16.9 FALSE       3     1
##  9 New South Wa 2012-01-01 04:00:00  3985.        16.6 FALSE       4     1
## 10 New South Wa 2012-01-01 04:30:00  3993.        16.2 FALSE       4     1
## #  with 263,030 more rows
